<?xml version="1.0" encoding="UTF-8" standalone="no"?>
<!-- Created with Inkscape (http://www.inkscape.org/) -->

<svg
   xmlns:dc="http://purl.org/dc/elements/1.1/"
   xmlns:cc="http://creativecommons.org/ns#"
   xmlns:rdf="http://www.w3.org/1999/02/22-rdf-syntax-ns#"
   xmlns:svg="http://www.w3.org/2000/svg"
   xmlns="http://www.w3.org/2000/svg"
   xmlns:sodipodi="http://sodipodi.sourceforge.net/DTD/sodipodi-0.dtd"
   xmlns:inkscape="http://www.inkscape.org/namespaces/inkscape"
   width="65.463524mm"
   height="38.656609mm"
   viewBox="0 0 231.95737 136.97223"
   id="svg7067"
   version="1.1"
   inkscape:version="0.92.1 r15371"
   sodipodi:docname="bv-crm-logo.svg">
  <defs
     id="defs7069" />
  <sodipodi:namedview
     id="base"
     pagecolor="#ffffff"
     bordercolor="#666666"
     borderopacity="1.0"
     inkscape:pageopacity="0.0"
     inkscape:pageshadow="2"
     inkscape:zoom="0.7"
     inkscape:cx="-153.89687"
     inkscape:cy="-61.115057"
     inkscape:document-units="px"
     inkscape:current-layer="layer1"
     showgrid="false"
     fit-margin-top="1"
     fit-margin-left="1"
     fit-margin-right="1"
     fit-margin-bottom="1"
     inkscape:window-width="1920"
     inkscape:window-height="1027"
     inkscape:window-x="-8"
     inkscape:window-y="22"
     inkscape:window-maximized="1" />
  <metadata
     id="metadata7072">
    <rdf:RDF>
      <cc:Work
         rdf:about="">
        <dc:format>image/svg+xml</dc:format>
        <dc:type
           rdf:resource="http://purl.org/dc/dcmitype/StillImage" />
        <dc:title></dc:title>
      </cc:Work>
    </rdf:RDF>
  </metadata>
  <g
     inkscape:label="Layer 1"
     inkscape:groupmode="layer"
     id="layer1"
     transform="translate(-410.44112,-129.59037)">
    <path
       inkscape:connector-curvature="0"
       id="path234"
       style="fill:#ee3338;fill-opacity:1;fill-rule:nonzero;stroke:none"
       d="m 448.20693,133.13368 -17.45375,10.29875 v 20.59375 l 17.45375,-10.29625 z" />
    <path
       inkscape:connector-curvature="0"
       id="path238"
       style="fill:#4d4c4e;fill-opacity:1;fill-rule:nonzero;stroke:none"
       d="m 413.98443,233.3168 50.33625,29.7025 v -19.79 L 430.75443,223.42055 V 209.3593 183.80555 l -16.77,-9.89375 z" />
    <path
       inkscape:connector-curvature="0"
       id="path242"
       style="fill:#ffffff;fill-opacity:1;fill-rule:nonzero;stroke:none"
       d="m 448.20818,194.10905 16.11125,-9.50625 v -20.60125 l -16.11375,9.50625 v -19.77875 l -17.4525,10.2975 v 19.78 25.55375 14.06 l 17.455,-10.2975 z" />
    <path
       inkscape:connector-curvature="0"
       id="path246"
       style="fill:#ee3338;fill-opacity:1;fill-rule:nonzero;stroke:none"
       d="M 430.75331,183.80755 V 164.0263 l 17.4525,-10.29875 v 19.78 l 16.11376,-9.50875 33.5675,19.80875 16.765,-9.895 -50.3325,-29.70125 -50.33251,29.70125 z" />
    <path
       inkscape:connector-curvature="0"
       id="path250"
       style="fill:#ffcd4c;fill-opacity:1;fill-rule:nonzero;stroke:none"
       d="m 497.88581,183.8063 h 0.002 v 39.615 h -0.002 l -33.56625,19.8075 v 19.78875 l 50.33251,-29.7 v -59.405 z" />
    <path
       inkscape:connector-curvature="0"
       id="path254"
       style="fill:#4d4c4e;fill-opacity:1;fill-rule:nonzero;stroke:none"
       d="m 464.31894,184.60217 16.11125,9.50625 v 19.015 l -16.11125,-9.50875 z" />
    <path
       inkscape:connector-curvature="0"
       id="path258"
       style="fill:#ffcd4c;fill-opacity:1;fill-rule:nonzero;stroke:none"
       d="m 464.31894,184.60217 -16.11,9.50625 v 19.015 l 16.11,-9.50875 z" />
    <path
       inkscape:connector-curvature="0"
       id="path262"
       style="fill:#ee3338;fill-opacity:1;fill-rule:nonzero;stroke:none"
       d="m 448.20818,213.12142 16.11125,9.50625 16.10875,-9.50625 -16.10875,-9.505 z" />
    <path
       inkscape:connector-curvature="0"
       id="path266"
       style="fill:#bec0c2;fill-opacity:1;fill-rule:nonzero;stroke:none"
       d="m 464.31894,164.0003 v 20.6025 l 16.11125,9.505 v 19.01375 l 17.45751,10.3 V 183.8078 Z" />
    <path
       inkscape:connector-curvature="0"
       id="path270"
       style="fill:#d2d4d5;fill-opacity:1;fill-rule:nonzero;stroke:none"
       d="m 480.42981,213.12142 v 0 l -16.11125,9.50625 -16.11,-9.50625 -17.455,10.3 33.565,19.805 33.56875,-19.805 z" />
    <g
       aria-label="CRM"
       transform="matrix(0.93749999,0,0,0.93749999,247.59465,129.11582)"
       style="font-style:normal;font-variant:normal;font-weight:bold;font-stretch:normal;font-size:53.33333206px;line-height:1.25;font-family:'Gotham Pro';-inkscape-font-specification:'Gotham Pro Bold';letter-spacing:0px;word-spacing:0px;fill:#bec0c2;fill-opacity:1;stroke:none"
       id="flowRoot4540">
      <path
         d="m 319.69208,94.550031 q -8.21333,0 -13.70666,-5.546667 -5.44,-5.6 -5.44,-13.76 0,-8.106666 5.49333,-13.706666 5.49333,-5.6 13.97333,-5.6 4.85334,0 8.16,1.6 3.30667,1.546667 6.29334,4.48 l -4.90667,5.653333 q -2.4,-2.186666 -4.53333,-3.146666 -2.08,-1.013334 -5.06667,-1.013334 -4.69333,0 -7.78667,3.413334 -3.04,3.36 -3.04,8.319999 0,4.906667 3.04,8.32 3.09334,3.413334 7.78667,3.413334 2.98667,0 5.17333,-1.066667 2.18667,-1.066667 4.64,-3.306667 l 5.22667,5.6 q -3.04,3.253333 -6.61333,4.8 -3.52,1.546667 -8.69334,1.546667 z"
         style=""
         id="path4548" />
      <path
         d="M 341.46958,93.910031 V 56.576698 h 17.06667 q 7.09333,0 10.88,3.786667 3.2,3.2 3.2,8.64 0,8.586666 -8,11.573333 l 9.12,13.333333 h -9.6 l -8.10667,-11.946667 h -6.34666 v 11.946667 z m 8.21334,-19.2 h 8.31999 q 2.98667,0 4.64,-1.44 1.65334,-1.493333 1.65334,-3.946666 0,-2.613334 -1.70667,-3.946667 -1.70667,-1.386667 -4.74667,-1.386667 h -8.15999 z"
         style=""
         id="path4550" />
      <path
         d="M 380.01125,93.910031 V 56.576698 h 8.85333 l 9.81334,15.786667 9.81333,-15.786667 h 8.85333 v 37.333333 h -8.16 V 69.536698 l -10.50666,15.946666 h -0.21334 l -10.4,-15.786666 v 24.213333 z"
         style=""
         id="path4552" />
    </g>
  </g>
</svg>
